// Jest Snapshot v1, https://goo.gl/fbAQLP

exports[`CenteredLayout renders child text 1`] = `
<div>
  <div
    class="MuiGrid-root CenteredLayout-container-1 MuiGrid-container MuiGrid-spacing-xs-2 MuiGrid-align-items-xs-center MuiGrid-justify-xs-center"
  >
    This is a test!
  </div>
</div>
`;
